<!-- README.md is generated from README.Rmd. Please edit that file -->

For the \#RStats using peasants

using {huggingfaceR}

``` r
huggingfaceR::hf_load_dataset(dataset = "OpenMed/pgc-schizophrenia", split = "train", limit = 1000)
#> # A tibble: 1,000 × 13
#>    snpid      hg18chr      bp a1    a2       or     se  pval  info   ngt
#>    <chr>        <int>   <int> <chr> <chr> <dbl>  <dbl> <dbl> <dbl> <int>
#>  1 rs10907175       1 1120590 A     C     1.01  0.0354 0.692 0.992    13
#>  2 rs2887286        1 1145994 T     C     0.986 0.0278 0.618 0.999    17
#>  3 rs11260562       1 1155173 A     G     1.000 0.0466 0.996 0.928    11
#>  4 rs7519837        1 1500664 T     C     1.01  0.0226 0.541 0.982    13
#>  5 rs12126768       1 1767950 T     G     1.03  0.027  0.349 0.993     5
#>  6 rs10907192       1 1782971 A     G     0.994 0.0474 0.903 0.962     3
#>  7 rs6603805        1 1811485 A     G     1.01  0.0233 0.795 0.984     0
#>  8 rs908742         1 2023116 A     G     0.983 0.0227 0.439 0.913    10
#>  9 rs3107147        1 2038589 A     G     1.03  0.0211 0.229 0.990     0
#> 10 rs3128309        1 2095738 A     G     1.03  0.0338 0.400 1.00     13
#> # ℹ 990 more rows
#> # ℹ 3 more variables: `_source_file` <chr>, .dataset <chr>, .split <chr>
```
…
